0c1225b22e2c4be6f42de3f48536d474c524c9b2
0c1225b22e2c4be6f42de3f48536d474c524c9b2
0c1225b22e2c4be6f42de3f48536d474c524c9b2
0c1225b22e2c4be6f42de3f48536d474c524c9b2
0c1225b22e2c4be6f42de3f48536d474c524c9b2
0c1225b22e2c4be6f42de3f48536d474c524c9b2
0c1225b22e2c4be6f42de3f48536d474c524c9b2
0c1225b22e2c4be6f42de3f48536d474c524c9b2
0c1225b22e2c4be6f42de3f48536d474c524c9b2